<svg xmlns="http://www.w3.org/2000/svg" viewBox="0 0 53 30">
	<polygon fill="#0058A0" points="35.6,27.6 36.9,19.9 39,19.9 37.7,27.6 "/>
	<path fill="#0058A0" d="M45.4,20c-0.4-0.2-1.1-0.3-1.9-0.3c-2.1,0-3.6,1.1-3.6,2.6c0,1.1,1.1,1.7,1.9,2.1c0.8,0.4,1.1,0.6,1.1,1
		c0,0.5-0.7,0.8-1.3,0.8c-0.8,0-1.3-0.1-2-0.4l-0.3-0.1L39,27.3c0.5,0.2,1.4,0.4,2.4,0.4c2.2,0,3.7-1,3.7-2.7c0-0.9-0.6-1.6-1.8-2.1
		c-0.7-0.4-1.2-0.6-1.2-1c0-0.3,0.4-0.7,1.2-0.7c0.7,0,1.2,0.1,1.6,0.3l0.2,0.1L45.4,20L45.4,20z"/>
	<path fill="#0058A0" d="M50.8,19.9h-1.6c-0.5,0-0.9,0.1-1.1,0.6l-3.1,7.1h2.2c0,0,0.4-1,0.5-1.2c0.2,0,2.4,0,2.7,0
		c0.1,0.3,0.3,1.2,0.3,1.2h2L50.8,19.9L50.8,19.9z M48.2,24.9c0.2-0.4,0.8-2.2,0.8-2.2c0,0,0.2-0.5,0.3-0.7l0.1,0.7
		c0,0,0.4,1.9,0.5,2.2H48.2L48.2,24.9z"/>
	<path fill="#0058A0" d="M33.8,19.9l-2.1,5.3l-0.2-1.1c-0.4-1.2-1.6-2.6-2.9-3.3l1.9,6.8h2.2l3.3-7.8H33.8L33.8,19.9z"/>
	<path fill="#FAA61A" d="M29.8,19.9h-3.4l0,0.2c2.6,0.6,4.4,2.2,5.1,4.1l-0.8-3.6C30.6,20,30.2,19.9,29.8,19.9L29.8,19.9z"/>
	<polygon fill="#0058A0" points="25.1,9 27.4,9 26,17.8 23.7,17.8 "/>
	<path fill="#0058A0" d="M17.2,9h3.5c2.2,0,2.8,1.3,2.5,2.8c-0.2,1.3-1.1,2.1-2.3,2.4l2.2,3.6h-2.9l-1.7-3.5l-0.5,3.5h-2.3L17.2,9
		L17.2,9z M19.2,10.7l-0.4,2.2h0.7c0.6,0,1.2-0.5,1.3-1.1l0,0c0.1-0.6-0.3-1.1-1-1.1L19.2,10.7L19.2,10.7z"/>
	<polygon fill="#0058A0" points="35.5,9 37.8,9 36.4,17.8 34.1,17.8 "/>
	<polygon fill="#0058A0" points="39.5,9 44.5,9 44.2,10.9 41.5,10.9 41.2,12.4 43.8,12.4 43.5,14.3 40.9,14.3 40.7,15.9 43.4,15.9
		43.1,17.8 38.1,17.8 "/>
	<polygon fill="#0058A0" points="10.9,9 15.9,9 15.6,10.9 12.9,10.9 12.6,12.4 15.2,12.4 14.9,14.3 12.3,14.3 12.1,15.9 14.8,15.9
		14.5,17.8 9.5,17.8 "/>
	<polygon fill="#0058A0" points="29.1,9 34.2,9 33.9,10.9 31.1,10.9 30.8,12.4 33.4,12.4 33.1,14.3 30.5,14.3 30,17.8 27.7,17.8 "/>
	<path fill="#0058A0" d="M48.8,9h-3l-1.4,8.8h3c2.8,0,5.1-1.9,5.5-4.4C53.1,11.6,52.3,9,48.8,9z M50.5,13.3c-0.3,1.6-1.4,2.6-2.9,2.6
		c-0.2,0-0.4,0-0.6,0l0.8-5c0.2,0,0.3,0,0.5,0C50,10.9,50.7,12.1,50.5,13.3z"/>
	<path fill="#0058A0" d="M0.2,7.8h4.2l0.5,6.4c2.8-4.8,5.6-9.5,8.5-14h1.4c-3,5.8-6,11.7-8.9,17.6H2.8L2,10.7C1.9,9,1.5,8.2,0.2,8V7.8
		L0.2,7.8z"/>
	<polygon fill="#FAA61A" points="1.8,4.1 5.4,5.6 5.7,9.6 6,9.6 9.2,4.1 9.2,3.8 1.8,3.8 "/>
	<polygon fill="#0058A0" points="20.9,22.8 22.7,22.8 23.5,25.3 25,22.8 26.7,22.8 22.2,30 20.5,30 22.4,27 "/>
	<path fill="#0058A0" d="M19.1,22.7c-0.6,0-1.1,0.2-1.5,0.7l0.5-3.5h-1.5l-1.1,7.8h1.5l0.1-0.6c0.3,0.4,0.7,0.7,1.3,0.7
		c1.2,0,2.3-1.1,2.5-2.5C21,23.8,20.2,22.7,19.1,22.7z M19.2,25.2c-0.1,0.6-0.6,1.1-1.1,1.1c-0.5,0-0.9-0.5-0.8-1.1
		c0.1-0.6,0.6-1.1,1.1-1.1C19,24.1,19.3,24.6,19.2,25.2z"/>
</svg>