<svg xmlns="http://www.w3.org/2000/svg" viewBox="0 0 32 32">
	<path fill="#FF9933" d="M23,16c-1,0-3,2-7,2s-6-2-7-2c-1.1,0-2,0.9-2,2c0,1,0.6,1.5,1,1.7c1.2,0.7,5,2.3,5,2.3l-4.2,5.4
		c0,0-0.8,0.9-0.8,1.6c0,1.1,0.9,2,2,2c1,0,1.5-0.7,1.5-0.7S16,25,16,25c0,0,4.5,5.3,4.5,5.3S21,31,22,31c1.1,0,2-0.9,2-2
		c0-0.6-0.8-1.6-0.8-1.6L19,22c0,0,3.8-1.6,5-2.3c0.4-0.3,1-0.7,1-1.7C25,16.9,24.1,16,23,16z"/>
	<path fill="#FF9933" d="M16,1c-3.9,0-7,3.1-7,7s3.1,7,7,7c3.9,0,7-3.1,7-7S19.9,1,16,1z M16,11.5c-1.9,0-3.5-1.6-3.5-3.5
		c0-1.9,1.6-3.5,3.5-3.5c1.9,0,3.5,1.6,3.5,3.5C19.5,9.9,17.9,11.5,16,11.5z"/>
</svg>