<svg xmlns="http://www.w3.org/2000/svg" viewBox="0 0 18 18">
	<rect fill="currentColor" x="0" y="0" width="18" height="4"></rect>
	<rect fill="currentColor" x="0" y="7" width="18" height="4"></rect>
	<rect fill="currentColor" x="0" y="14" width="18" height="4"></rect>
</svg>